INDEX VERSION 1.131+/Users/irfanvirani/Documents/School/Current/19/Winter/COMP2503/comp2503/Java/.metadata/.plugins/org.eclipse.jdt.core
1720955773.index
4288340679.index
204102232.index
763704052.index
2385543594.index
75911742.index
1937859240.index
3557270003.index
395487168.index
